{
	"instanceName" : "test",
	"database" : {
		"type" : "mysql",
		"username" : "root",
		"host" : "localhost",
		"password" : "root",
		"database" : "pages_framework"
	},
	"urls" : {
		"allowCustomUrls" : false,
		"customUrlPrefix" : "/custom/",

		"customUrlChars" : "azertyuiopqsdfghjklmwxcvbn",
		"customCharsCount" : 40


	}
}
